CL = 0.03;
Point(1) = {0, 0, 0, CL};
Point(2) = {1, 0, 0, CL};
Point(3) = {1, 1, 0, CL};
Point(4) = {0, 1, 0, CL};
Point(5) = {0.10, 0.06, 0, CL};
Point(6) = {0.35, 0.06, 0, CL};
Point(7) = {0.35, 0.45, 0, CL};
Point(8) = {0.20, 0.45, 0, CL};
Point(9) = {0.5, 0.3, 0, CL};
Point(10) = {0.4, 0.4, 0, CL};
Point(11) = {0.5, 0.6, 0, CL};
Point(12) = {0.7, 0.4, 0, CL};
Point(13) = {0.1, 0.8, 0, CL};
Point(14) = {0.1, 0.9, 0, CL};
Point(15) = {0.6, 0.9, 0, CL};
Point(16) = {0.6, 0.8, 0, CL};

Line(1) = {1, 2};
Line(2) = {2, 3};
Line(3) = {3, 4};
Line(4) = {4, 1};
Line(5) = {5, 6};
Line(6) = {6, 7};
Line(7) = {7, 8};
Line(8) = {8, 5};
Line(9) = {14, 15};
Line(10) = {15, 16};
Line(11) = {16, 13};
Line(12) = {14, 13};
Line(13) = {11, 12};
Line(14) = {10, 11};
Line(15) = {10, 9};
Line(16) = {12, 9};

Line Loop(1) = {5, 6, 7, 8};
Plane Surface(1) = {1};
Line Loop(2) = {9, 10, 11, -12};
Plane Surface(2) = {2};
Line Loop(3) = {13, 16, -15, 14};
Plane Surface(3) = {3};

Line Loop(4) = {3, 4, 1, 2};
Plane Surface(4) = {1, 2, 3, 4};

Physical Point(10) = {1};
Physical Point(51) = {3};
Physical Point(1100) = {2, 4};
Physical Line(2000) = {1, 2, 3, 4, 5, 6, 7, 8, 9, 10, 11, 12, 13, 14, 15, 16};
Physical Surface(3300) = {4};
Physical Surface(3301) = {1};
Physical Surface(3302) = {2};
Physical Surface(3303) = {3};
