cl = 0.07;
Point(1) = {0, 0, 0, cl};
Point(2) = {1, 0, 0, cl};
Point(3) = {1, 1, 0, cl};
Point(4) = {0, 1, 0, cl};
Point(5) = {0, 0.3, 0, cl};
Point(6) = {0, 0.5, 0, cl};
Point(7) = {0.3, 0, 0, cl};
Point(8) = {0.5, 0, 0, cl};
Point(9) = {0.3, 0.2, 0, cl};
Point(10) = {0.5, 0.2, 0, cl};
Point(11) = {0.2, 0.3, 0, cl};
Point(12) = {0.2, 0.5, 0, cl};
Point(13) = {0.3, 0.7, 0, cl};
Point(14) = {0.7, 0.3, 0, cl};
Point(15) = {0.7, 0.9, 0, cl};
Point(16) = {0.9, 0.7, 0, cl};
Line(1) = {5, 1};
Line(2) = {1, 7};
Line(3) = {7, 8};
Line(4) = {8, 2};
Line(5) = {2, 3};
Line(6) = {3, 4};
Line(7) = {4, 6};
Line(8) = {6, 5};
Line(9) = {5, 11};
Line(10) = {11, 12};
Line(11) = {12, 6};
Line(12) = {9, 7};
Line(13) = {9, 10};
Line(14) = {10, 8};
Line(15) = {13, 15};
Line(16) = {15, 16};
Line(17) = {16, 14};
Line(18) = {14, 13};
Line Loop(32) = {15, 16, 17, 18, -5, -4, -14, -13, 12, -2, -1, 9, 10, 11, -7, -6};
Plane Surface(32) = {32};
Line Loop(33) = {10, 11, 8, 9};
Plane Surface(33) = {33};
Line Loop(34) = {13, 14, -3, -12};
Plane Surface(34) = {34};
Line Loop(35) = {15, 16, 17, 18};
Plane Surface(35) = {35};
Physical Surface(3303) = {35};
Physical Surface(3302) = {34};
Physical Surface(3301) = {33};
Physical Surface(3300) = {32};
Physical Line(2000) = {1, 2, 3, 4, 5, 6, 7, 8, 11, 10, 9, 13, 14, 12, 18, 15, 16, 17};
Physical Point(10) = {1};
Physical Point(51) = {3};
Physical Point(1100) = {2, 4};
