CL = 0.7;
Point(1) = {0, 0, 0, CL};
Point(2) = {10, 0, 0, CL};
Point(3) = {10, 10, 0, CL};
Point(4) = {0, 10, 0, CL};
Line(1) = {1, 2};
Line(2) = {2, 3};
Line(3) = {3, 4};
Line(4) = {4, 1};
Line Loop(1) = {1, 2, 3, 4};
Plane Surface(1) = {1};
Physical Point(10) = {1};
Physical Point(51) = {3};
Physical Point(1100) = {2, 4};
Physical Line(2000) = {1, 2, 3, 4};
Physical Surface(3300) = {1};
