cl__1 = .08;
Point(1) = {0, 0, 0, cl__1};
Point(2) = {0.5, 0, 0, cl__1};
Point(3) = {1, 0, 0, cl__1};
Point(4) = {0, 0.5, 0, cl__1};
Point(5) = {0.5, 0.5, 0, cl__1};
Point(6) = {1, 0.5, 0, cl__1};
Point(7) = {0, 1, 0, cl__1};
Point(8) = {0.5, 1, 0, cl__1};
Point(9) = {1, 1, 0, cl__1};
Line(1) = {1, 2};
Line(2) = {2, 5};
Line(3) = {5, 4};
Line(4) = {4, 1};
Line(5) = {2, 3};
Line(6) = {3, 6};
Line(7) = {6, 5};
Line(8) = {6, 9};
Line(9) = {9, 8};
Line(10) = {8, 5};
Line(11) = {8, 7};
Line(12) = {7, 4};
Line Loop(14) = {4, 1, 2, 3};
Plane Surface(14) = {14};
Line Loop(16) = {2, -7, -6, -5};
Plane Surface(16) = {16};
Line Loop(18) = {12, -3, -10, 11};
Plane Surface(18) = {18};
Line Loop(20) = {7, -10, -9, -8};
Plane Surface(20) = {20};
Physical Point(10) = {1};
Physical Point(51) = {9};
Physical Point(1100) = {7, 3};
Physical Line(2200) = {1, 2, 3, 4, 5, 6, 7, 8, 9, 10, 11, 12};
Physical Surface(3300) = {14};
Physical Surface(3301) = {16};
Physical Surface(3302) = {18};
Physical Surface(3303) = {20};
