cl = 0.04;
Point(1) = {0, 0, 0, cl};
Point(2) = {1, 0, 0, cl};
Point(3) = {1, 1, 0, cl};
Point(4) = {0, 1, 0, cl};
Point(6) = {0.4, 0.3, -0, cl};
Point(9) = {0.2, 0.3, -0, cl};
Line(1) = {4, 1};
Line(2) = {1, 2};
Line(3) = {2, 3};
Line(4) = {3, 4};
Circle(5) = {9, 6, 9};
Line Loop(1) = {3, 4, 1, 2, -5};
Plane Surface(1) = {1};
Line Loop(2) = {5};
Plane Surface(2) = {2};
Physical Point(51) = {3};
Physical Point(1100) = {1, 2, 4};
Physical Line(2000) = {1, 2, 3, 4, 5};
Physical Surface(3300) = {1};
Physical Surface(3301) = {2};
Physical Point(10) = {9};
