$NOD
517
1 1 0 0
2 1 1 0
3 0 1 0
4 0 0 0
5 1 0.0526316 0
6 1 0.105263 0
7 1 0.157895 0
8 1 0.210526 0
9 1 0.263158 0
10 1 0.315789 0
11 1 0.368421 0
12 1 0.421053 0
13 1 0.473684 0
14 1 0.526316 0
15 1 0.578947 0
16 1 0.631579 0
17 1 0.684211 0
18 1 0.736842 0
19 1 0.789474 0
20 1 0.842105 0
21 1 0.894737 0
22 1 0.947368 0
23 0.947368 1 0
24 0.894737 1 0
25 0.842105 1 0
26 0.789474 1 0
27 0.736842 1 0
28 0.684211 1 0
29 0.631579 1 0
30 0.578947 1 0
31 0.526316 1 0
32 0.473684 1 0
33 0.421053 1 0
34 0.368421 1 0
35 0.315789 1 0
36 0.263158 1 0
37 0.210526 1 0
38 0.157895 1 0
39 0.105263 1 0
40 0.0526316 1 0
41 0 0.947368 0
42 0 0.894737 0
43 0 0.842105 0
44 0 0.789474 0
45 0 0.736842 0
46 0 0.684211 0
47 0 0.631579 0
48 0 0.578947 0
49 0 0.526316 0
50 0 0.473684 0
51 0 0.421053 0
52 0 0.368421 0
53 0 0.315789 0
54 0 0.263158 0
55 0 0.210526 0
56 0 0.157895 0
57 0 0.105263 0
58 0 0.0526316 0
59 0.0526316 0 0
60 0.105263 0 0
61 0.157895 0 0
62 0.210526 0 0
63 0.263158 0 0
64 0.315789 0 0
65 0.368421 0 0
66 0.421053 0 0
67 0.473684 0 0
68 0.526316 0 0
69 0.578947 0 0
70 0.631579 0 0
71 0.684211 0 0
72 0.736842 0 0
73 0.789474 0 0
74 0.842105 0 0
75 0.894737 0 0
76 0.947368 0 0
77 0.500267 0.497275 0
78 0.707363 0.704157 0
79 0.293666 0.702086 0
80 0.705279 0.29279 0
81 0.298257 0.293266 0
82 0.493054 0.778614 0
83 0.22133 0.494167 0
84 0.782197 0.499541 0
85 0.496646 0.218426 0
86 0.831618 0.830214 0
87 0.169786 0.831618 0
88 0.830214 0.168382 0
89 0.168382 0.169786 0
90 0.565311 0.64642 0
91 0.352676 0.563306 0
92 0.645213 0.431383 0
93 0.432453 0.352899 0
94 0.6403219999999999 0.846514 0
95 0.153527 0.640344 0
96 0.846866 0.358923 0
97 0.35967 0.153569 0
98 0.849222 0.638966 0
99 0.36081 0.849297 0
100 0.638966 0.150778 0
101 0.150703 0.36081 0
102 0.680949 0.583114 0
103 0.445635 0.671108 0
104 0.331555 0.441348 0
105 0.581091 0.321993 0
106 0.534073 0.889897 0
107 0.109933 0.534181 0
108 0.8897969999999999 0.466605 0
109 0.466541 0.110322 0
110 0.736644 0.88491 0
111 0.11509 0.736644 0
112 0.885334 0.262496 0
113 0.26334 0.115097 0
114 0.888128 0.742358 0
115 0.742358 0.111872 0
116 0.257521 0.888286 0
117 0.111714 0.257521 0
118 0.6038790000000001 0.739421 0
119 0.256176 0.598387 0
120 0.740466 0.393144 0
121 0.403897 0.254438 0
122 0.60705 0.523763 0
123 0.521555 0.396862 0
124 0.906986 0.906383 0
125 0.09361700000000001 0.906986 0
126 0.906383 0.0930136 0
127 0.0930136 0.09361700000000001 0
128 0.384609 0.750154 0
129 0.252879 0.387727 0
130 0.906547 0.559953 0
131 0.559978 0.0936158 0
132 0.440022 0.906384 0
133 0.09347 0.440067 0
134 0.74196 0.7971819999999999 0
135 0.202818 0.74196 0
136 0.797229 0.25799 0
137 0.25799 0.202771 0
138 0.798324 0.716087 0
139 0.28463 0.798614 0
140 0.716087 0.201676 0
141 0.201332 0.284588 0
142 0.49772 0.594122 0
143 0.409397 0.494155 0
144 0.758883 0.634215 0
145 0.633687 0.241348 0
146 0.3557 0.654593 0
147 0.6947 0.497767 0
148 0.344498 0.353886 0
149 0.500042 0.31057 0
150 0.816447 0.917467 0
151 0.08253340000000001 0.816447 0
152 0.917475 0.183535 0
153 0.183552 0.0825333 0
154 0.921262 0.815174 0
155 0.815174 0.0787379 0
156 0.184709 0.921239 0
157 0.0786215 0.184464 0
158 0.608832 0.92275 0
159 0.07725 0.608832 0
160 0.922778 0.391083 0
161 0.391168 0.07725 0
162 0.6497810000000001 0.659131 0
163 0.5182909999999999 0.700896 0
164 0.299629 0.518188 0
165 0.659031 0.352213 0
166 0.92336 0.656663 0
167 0.656663 0.07663970000000001 0
168 0.343303 0.923332 0
169 0.0764283 0.343176 0
170 0.822325 0.563395 0
171 0.435063 0.824428 0
172 0.56332 0.177814 0
173 0.17555 0.435149 0
174 0.574469 0.818167 0
175 0.18188 0.574495 0
176 0.819873 0.427643 0
177 0.425583 0.181273 0
178 0.457685 0.435011 0
179 0.780871 0.332354 0
180 0.331862 0.21983 0
181 0.6682439999999999 0.781342 0
182 0.219394 0.66865 0
183 0.569736 0.459451 0
184 0.671627 0.9309730000000001 0
185 0.06902700000000001 0.671627 0
186 0.931235 0.327583 0
187 0.328373 0.06902700000000001 0
188 0.746082 0.5595869999999999 0
189 0.5595869999999999 0.253918 0
190 0.419402 0.5987 0
191 0.446912 0.731768 0
192 0.260874 0.450796 0
193 0.613924 0.594195 0
194 0.591684 0.390539 0
195 0.392404 0.413436 0
196 0.939964 0.505449 0
197 0.494708 0.940217 0
198 0.505351 0.0598035 0
199 0.0602103 0.494762 0
200 0.545512 0.569641 0
201 0.452939 0.529251 0
202 0.500287 0.839059 0
203 0.160682 0.5009479999999999 0
204 0.838013 0.506836 0
205 0.506165 0.163235 0
206 0.700238 0.841682 0
207 0.158318 0.700238 0
208 0.8404199999999999 0.299318 0
209 0.299589 0.158393 0
210 0.835212 0.773025 0
211 0.226975 0.835212 0
212 0.773025 0.164788 0
213 0.164788 0.226975 0
214 0.352426 0.304788 0
215 0.32192 0.7576310000000001 0
216 0.241888 0.321541 0
217 0.5576140000000001 0.945452 0
218 0.0545476 0.5576140000000001 0
219 0.945452 0.442386 0
220 0.442386 0.0545476 0
221 0.7642330000000001 0.943682 0
222 0.0563177 0.7642330000000001 0
223 0.943682 0.235767 0
224 0.235767 0.0563177 0
225 0.946858 0.767273 0
226 0.767273 0.0531422 0
227 0.232727 0.946858 0
228 0.0531422 0.232727 0
229 0.305229 0.649732 0
230 0.741987 0.465136 0
231 0.432779 0.299606 0
232 0.948034 0.606062 0
233 0.606062 0.0519664 0
234 0.393938 0.948034 0
235 0.0519664 0.393938 0
236 0.9453009999999999 0.0546989 0
237 0.0546989 0.0546989 0
238 0.9453009999999999 0.9453009999999999 0
239 0.0546989 0.9453009999999999 0
240 0.864422 0.947999 0
241 0.0520009 0.864422 0
242 0.948705 0.8643189999999999 0
243 0.135959 0.948868 0
244 0.947999 0.135578 0
245 0.8643189999999999 0.0512946 0
246 0.0509986 0.135725 0
247 0.135578 0.0520009 0
248 0.7757540000000001 0.844767 0
249 0.155233 0.7757540000000001 0
250 0.844812 0.224159 0
251 0.224239 0.155229 0
252 0.543658 0.746734 0
253 0.252892 0.543156 0
254 0.710438 0.346793 0
255 0.851452 0.6941850000000001 0
256 0.6941850000000001 0.148548 0
257 0.305707 0.851751 0
258 0.148244 0.305703 0
259 0.505705 0.649593 0
260 0.352594 0.505022 0
261 0.566689 0.697936 0
262 0.303323 0.570438 0
263 0.685041 0.400371 0
264 0.654988 0.710544 0
265 0.7013200000000001 0.646717 0
266 0.646294 0.299024 0
267 0.587431 0.868961 0
268 0.131039 0.587431 0
269 0.868961 0.412569 0
270 0.412569 0.131039 0
271 0.657618 0.533304 0
272 0.531525 0.344996 0
273 0.947532 0.706116 0
274 0.706116 0.052468 0
275 0.293578 0.9472739999999999 0
276 0.0527887 0.29368 0
277 0.346403 0.707604 0
278 0.308864 0.392183 0
279 0.45527 0.248703 0
280 0.7493919999999999 0.73804 0
281 0.262924 0.749425 0
282 0.737792 0.250627 0
283 0.251142 0.262963 0
284 0.754894 0.685684 0
285 0.6853050000000001 0.245203 0
286 0.620394 0.795521 0
287 0.204903 0.620628 0
288 0.795328 0.380681 0
289 0.379669 0.204714 0
290 0.384165 0.894491 0
291 0.105509 0.384165 0
292 0.894491 0.615835 0
293 0.615835 0.105509 0
294 0.852806 0.883123 0
295 0.116877 0.852806 0
296 0.883123 0.147194 0
297 0.147194 0.116877 0
298 0.388633 0.805971 0
299 0.194131 0.388592 0
300 0.637951 0.480629 0
301 0.482396 0.364731 0
302 0.397769 0.694954 0
303 0.792799 0.797566 0
304 0.202434 0.792799 0
305 0.7975719999999999 0.207195 0
306 0.207195 0.202428 0
307 0.808942 0.61282 0
308 0.612753 0.191099 0
309 0.292654 0.344525 0
310 0.50287 0.445079 0
311 0.554133 0.5106000000000001 0
312 0.391605 0.329458 0
313 0.958051 0.554602 0
314 0.554592 0.0419397 0
315 0.445415 0.958063 0
316 0.0419745 0.445429 0
317 0.804335 0.665941 0
318 0.665833 0.195706 0
319 0.876477 0.801031 0
320 0.801031 0.123523 0
321 0.198955 0.876495 0
322 0.123505 0.198955 0
323 0.33372 0.807372 0
324 0.19258 0.333668 0
325 0.401665 0.548767 0
326 0.332473 0.60884 0
327 0.686863 0.45003 0
328 0.485695 0.888266 0
329 0.888101 0.515363 0
330 0.111714 0.48581 0
331 0.515255 0.112072 0
332 0.456738 0.476588 0
333 0.679123 0.884028 0
334 0.115977 0.679125 0
335 0.884673 0.319624 0
336 0.320855 0.115991 0
337 0.502775 0.545921 0
338 0.435006 0.781603 0
339 0.218233 0.43565 0
340 0.376511 0.452141 0
341 0.715607 0.958379 0
342 0.0416214 0.715607 0
343 0.958413 0.284288 0
344 0.284393 0.0416214 0
345 0.706727 0.5459039999999999 0
346 0.5457340000000001 0.294476 0
347 0.406813 0.641709 0
348 0.456477 0.623291 0
349 0.640104 0.960398 0
350 0.0396025 0.640104 0
351 0.960432 0.35979 0
352 0.359896 0.0396025 0
353 0.889935 0.852329 0
354 0.852329 0.110065 0
355 0.14767 0.889937 0
356 0.109793 0.148422 0
357 0.725723 0.596031 0
358 0.595681 0.274802 0
359 0.782979 0.890368 0
360 0.109632 0.782979 0
361 0.890431 0.216895 0
362 0.217018 0.109632 0
363 0.307758 0.89832 0
364 0.101656 0.307754 0
365 0.898297 0.6921659999999999 0
366 0.6921659999999999 0.101703 0
367 0.698684 0.753546 0
368 0.242132 0.702931 0
369 0.753517 0.301755 0
370 0.297474 0.242217 0
371 0.610287 0.682526 0
372 0.8157219999999999 0.962838 0
373 0.0371616 0.8157219999999999 0
374 0.962838 0.184278 0
375 0.184278 0.0371616 0
376 0.963356 0.816114 0
377 0.816114 0.0366441 0
378 0.184312 0.963606 0
379 0.036358 0.184248 0
380 0.741646 0.516211 0
381 0.51068 0.260877 0
382 0.771542 0.427841 0
383 0.354508 0.40276 0
384 0.784664 0.541072 0
385 0.540053 0.215839 0
386 0.377858 0.603806 0
387 0.537366 0.611745 0
388 0.413989 0.8597669999999999 0
389 0.140225 0.413999 0
390 0.859873 0.585974 0
391 0.585961 0.140165 0
392 0.494011 0.733706 0
393 0.47842 0.6973 0
394 0.265326 0.494597 0
395 0.301748 0.472483 0
396 0.610375 0.632981 0
397 0.650537 0.613475 0
398 0.6326000000000001 0.391409 0
399 0.611092 0.353358 0
400 0.0352014 0.602209 0
401 0.602209 0.964799 0
402 0.397791 0.0352014 0
403 0.964807 0.397766 0
404 0.5772119999999999 0.777392 0
405 0.222034 0.576448 0
406 0.9647520000000001 0.657249 0
407 0.657249 0.0352482 0
408 0.342706 0.964714 0
409 0.0352628 0.342702 0
410 0.543673 0.842583 0
411 0.157366 0.543779 0
412 0.845094 0.458958 0
413 0.457512 0.157239 0
414 0.90744 0.78087 0
415 0.78087 0.09255960000000001 0
416 0.219595 0.907755 0
417 0.092222 0.219554 0
418 0.464505 0.325365 0
419 0.258395 0.648793 0
420 0.419891 0.446837 0
421 0.353534 0.25783 0
422 0.635334 0.889211 0
423 0.110795 0.635337 0
424 0.889382 0.364282 0
425 0.364662 0.110803 0
426 0.603135 0.433486 0
427 0.38959 0.373735 0
428 0.42348 0.220036 0
429 0.571705 0.90722 0
430 0.0927518 0.571723 0
431 0.907208 0.428394 0
432 0.428398 0.0928166 0
433 0.883414 0.658378 0
434 0.658378 0.116586 0
435 0.341563 0.883463 0
436 0.116501 0.341545 0
437 0.53912 0.796494 0
438 0.203365 0.539191 0
439 0.814497 0.33284 0
440 0.332813 0.185897 0
441 0.539409 0.672855 0
442 0.327656 0.539569 0
443 0.910004 0.9604470000000001 0
444 0.0395529 0.910004 0
445 0.9604470000000001 0.08999649999999999 0
446 0.08999649999999999 0.0395529 0
447 0.909909 0.0393782 0
448 0.960622 0.909909 0
449 0.0393388 0.0900965 0
450 0.09012770000000001 0.960643 0
451 0.3226 0.324316 0
452 0.680598 0.322984 0
453 0.667218 0.814642 0
454 0.185518 0.667306 0
455 0.434987 0.399179 0
456 0.458242 0.856616 0
457 0.143334 0.458344 0
458 0.862204 0.544523 0
459 0.5444099999999999 0.13803 0
460 0.556402 0.422563 0
461 0.466888 0.8139189999999999 0
462 0.186008 0.467235 0
463 0.678117 0.68057 0
464 0.461136 0.201462 0
465 0.576555 0.602573 0
466 0.802158 0.466186 0
467 0.6471710000000001 0.753729 0
468 0.75398 0.353656 0
469 0.481854 0.407725 0
470 0.357409 0.779505 0
471 0.220632 0.357138 0
472 0.323399 0.678959 0
473 0.292559 0.613306 0
474 0.722494 0.426819 0
475 0.604817 0.832892 0
476 0.167194 0.604864 0
477 0.833203 0.395589 0
478 0.395201 0.167068 0
479 0.772416 0.587997 0
480 0.587771 0.227745 0
481 0.79761 0.302698 0
482 0.302132 0.202204 0
483 0.454725 0.575407 0
484 0.697406 0.7978229999999999 0
485 0.20172 0.698038 0
486 0.813234 0.870602 0
487 0.129398 0.813234 0
488 0.8706159999999999 0.186737 0
489 0.186764 0.129397 0
490 0.5900069999999999 0.561746 0
491 0.53643 0.467514 0
492 0.971543 0.0284574 0
493 0.0284574 0.0284574 0
494 0.971543 0.971543 0
495 0.0284574 0.971543 0
496 0.292876 0.428461 0
497 0.637275 0.568835 0
498 0.561693 0.373944 0
499 0.789837 0.757723 0
500 0.242464 0.789873 0
501 0.757701 0.210159 0
502 0.210178 0.242458 0
503 0.594465 0.483389 0
504 0.833681 0.734776 0
505 0.265314 0.833785 0
506 0.734773 0.166319 0
507 0.166214 0.265307 0
508 0.391604 0.290694 0
509 0.7380640000000001 0.845988 0
510 0.154012 0.7380640000000001 0
511 0.8463580000000001 0.261649 0
512 0.261895 0.154017 0
513 0.714293 0.920281 0
514 0.0797196 0.714293 0
515 0.920463 0.285306 0
516 0.285702 0.0797224 0
517 0.471085 0.28546 0
$ENDNOD
$ELM
1032
1 1 2000 0 2 61 62
2 1 2000 0 2 45 46
3 1 2000 0 2 44 45
4 1 2000 0 2 71 72
5 1 2000 0 2 54 55
6 1 2000 0 2 26 27
7 1 2000 0 2 25 26
8 1 2000 0 2 60 61
9 1 2000 0 2 55 56
10 1 2000 0 2 27 28
11 1 2000 0 2 36 37
12 1 2000 0 2 70 71
13 1 2000 0 2 19 20
14 1 2000 0 2 3 41
15 1 2000 0 2 35 36
16 1 2000 0 2 69 70
17 1 2000 0 2 43 44
18 1 2000 0 2 50 51
19 1 2000 0 2 51 52
20 1 2000 0 2 9 10
21 1 2000 0 2 68 69
22 1 2000 0 2 22 2
23 1 2000 0 2 40 3
24 1 2000 0 2 2 23
25 1 2000 0 2 56 57
26 1 2000 0 2 76 1
27 1 2000 0 2 46 47
28 1 2000 0 2 67 68
29 1 2000 0 2 59 60
30 1 2000 0 2 34 35
31 1 2000 0 2 16 17
32 1 2000 0 2 28 29
33 1 2000 0 2 1 5
34 1 2000 0 2 63 64
35 1 2000 0 2 37 38
36 1 2000 0 2 62 63
37 1 2000 0 2 64 65
38 1 2000 0 2 8 9
39 1 2000 0 2 57 58
40 1 2000 0 2 7 8
41 1 2000 0 2 10 11
42 1 2000 0 2 13 14
43 1 2000 0 2 72 73
44 1 2000 0 2 24 25
45 1 2000 0 2 20 21
46 1 2000 0 2 53 54
47 1 2000 0 2 14 15
48 1 2000 0 2 49 50
49 1 2000 0 2 74 75
50 1 2000 0 2 41 42
51 1 2000 0 2 42 43
52 1 2000 0 2 58 4
53 1 2000 0 2 39 40
54 1 2000 0 2 18 19
55 1 2000 0 2 52 53
56 1 2000 0 2 17 18
57 1 2000 0 2 33 34
58 1 2000 0 2 15 16
59 1 2000 0 2 32 33
60 1 2000 0 2 66 67
61 1 2000 0 2 75 76
62 1 2000 0 2 6 7
63 1 2000 0 2 31 32
64 1 2000 0 2 38 39
65 1 2000 0 2 4 59
66 1 2000 0 2 73 74
67 1 2000 0 2 47 48
68 1 2000 0 2 21 22
69 1 2000 0 2 12 13
70 1 2000 0 2 23 24
71 1 2000 0 2 48 49
72 1 2000 0 2 30 31
73 1 2000 0 2 29 30
74 1 2000 0 2 11 12
75 1 2000 0 2 5 6
76 1 2000 0 2 65 66
77 2 3300 0 3 169 364 436
78 2 3300 0 3 45 46 342
79 2 3300 0 3 184 341 28
80 2 3300 0 3 184 513 341
81 2 3300 0 3 163 252 392
82 2 3300 0 3 27 28 341
83 2 3300 0 3 258 436 364
84 2 3300 0 3 113 512 251
85 2 3300 0 3 199 107 218
86 2 3300 0 3 217 158 401
87 2 3300 0 3 122 311 503
88 2 3300 0 3 20 242 376
89 2 3300 0 3 25 26 372
90 2 3300 0 3 209 512 113
91 2 3300 0 3 149 381 346
92 2 3300 0 3 184 158 422
93 2 3300 0 3 199 330 107
94 2 3300 0 3 216 324 141
95 2 3300 0 3 163 261 252
96 2 3300 0 3 169 276 364
97 2 3300 0 3 263 398 165
98 2 3300 0 3 229 472 79
99 2 3300 0 3 227 156 416
100 2 3300 0 3 182 485 454
101 2 3300 0 3 98 307 390
102 2 3300 0 3 234 408 168
103 2 3300 0 3 229 79 419
104 2 3300 0 3 19 20 376
105 2 3300 0 3 36 37 227
106 2 3300 0 3 278 496 129
107 2 3300 0 3 141 324 258
108 2 3300 0 3 194 426 460
109 2 3300 0 3 277 79 472
110 2 3300 0 3 227 416 116
111 2 3300 0 3 225 19 376
112 2 3300 0 3 232 406 166
113 2 3300 0 3 183 503 311
114 2 3300 0 3 209 113 336
115 2 3300 0 3 104 496 278
116 2 3300 0 3 226 415 115
117 2 3300 0 3 269 176 477
118 2 3300 0 3 44 373 43
119 2 3300 0 3 183 460 426
120 2 3300 0 3 269 96 424
121 2 3300 0 3 194 399 398
122 2 3300 0 3 82 392 252
123 2 3300 0 3 240 372 150
124 2 3300 0 3 321 416 156
125 2 3300 0 3 229 146 472
126 2 3300 0 3 242 154 376
127 2 3300 0 3 194 398 426
128 2 3300 0 3 149 301 418
129 2 3300 0 3 294 86 353
130 2 3300 0 3 148 312 427
131 2 3300 0 3 207 95 454
132 2 3300 0 3 166 365 433
133 2 3300 0 3 165 398 399
134 2 3300 0 3 156 243 355
135 2 3300 0 3 206 453 484
136 2 3300 0 3 233 407 167
137 2 3300 0 3 115 415 320
138 2 3300 0 3 207 454 485
139 2 3300 0 3 146 277 472
140 2 3300 0 3 116 416 321
141 2 3300 0 3 69 70 233
142 2 3300 0 3 269 477 96
143 2 3300 0 3 25 372 240
144 2 3300 0 3 192 129 496
145 2 3300 0 3 167 366 434
146 2 3300 0 3 241 373 151
147 2 3300 0 3 245 354 155
148 2 3300 0 3 183 426 503
149 2 3300 0 3 132 456 328
150 2 3300 0 3 60 61 247
151 2 3300 0 3 241 151 295
152 2 3300 0 3 98 317 307
153 2 3300 0 3 259 441 163
154 2 3300 0 3 93 427 312
155 2 3300 0 3 69 233 314
156 2 3300 0 3 242 353 154
157 2 3300 0 3 225 376 154
158 2 3300 0 3 123 469 301
159 2 3300 0 3 233 167 293
160 2 3300 0 3 55 56 379
161 2 3300 0 3 263 92 398
162 2 3300 0 3 227 116 275
163 2 3300 0 3 70 71 407
164 2 3300 0 3 113 516 336
165 2 3300 0 3 184 333 513
166 2 3300 0 3 194 460 498
167 2 3300 0 3 103 348 259
168 2 3300 0 3 117 258 364
169 2 3300 0 3 261 163 441
170 2 3300 0 3 207 510 111
171 2 3300 0 3 189 346 381
172 2 3300 0 3 292 98 390
173 2 3300 0 3 232 166 292
174 2 3300 0 3 132 388 456
175 2 3300 0 3 181 484 453
176 2 3300 0 3 36 227 275
177 2 3300 0 3 321 156 355
178 2 3300 0 3 278 129 309
179 2 3300 0 3 240 150 294
180 2 3300 0 3 101 258 324
181 2 3300 0 3 205 331 459
182 2 3300 0 3 88 320 354
183 2 3300 0 3 113 251 362
184 2 3300 0 3 105 399 498
185 2 3300 0 3 226 155 415
186 2 3300 0 3 203 107 330
187 2 3300 0 3 263 120 474
188 2 3300 0 3 224 516 113
189 2 3300 0 3 137 251 512
190 2 3300 0 3 291 169 436
191 2 3300 0 3 148 278 309
192 2 3300 0 3 70 407 233
193 2 3300 0 3 227 378 156
194 2 3300 0 3 229 419 473
195 2 3300 0 3 101 436 258
196 2 3300 0 3 200 337 311
197 2 3300 0 3 111 510 249
198 2 3300 0 3 286 181 453
199 2 3300 0 3 194 498 399
200 2 3300 0 3 93 418 301
201 2 3300 0 3 51 52 235
202 2 3300 0 3 216 309 129
203 2 3300 0 3 156 378 243
204 2 3300 0 3 270 432 109
205 2 3300 0 3 118 252 261
206 2 3300 0 3 292 166 433
207 2 3300 0 3 222 342 514
208 2 3300 0 3 286 475 174
209 2 3300 0 3 103 347 348
210 2 3300 0 3 271 122 300
211 2 3300 0 3 86 319 353
212 2 3300 0 3 218 107 430
213 2 3300 0 3 85 385 381
214 2 3300 0 3 320 155 354
215 2 3300 0 3 275 168 408
216 2 3300 0 3 292 433 98
217 2 3300 0 3 187 425 336
218 2 3300 0 3 68 69 314
219 2 3300 0 3 216 471 324
220 2 3300 0 3 35 36 275
221 2 3300 0 3 105 346 358
222 2 3300 0 3 37 378 227
223 2 3300 0 3 280 78 284
224 2 3300 0 3 45 342 222
225 2 3300 0 3 173 457 389
226 2 3300 0 3 163 392 393
227 2 3300 0 3 266 452 165
228 2 3300 0 3 141 502 283
229 2 3300 0 3 182 419 368
230 2 3300 0 3 260 442 164
231 2 3300 0 3 137 512 209
232 2 3300 0 3 112 511 250
233 2 3300 0 3 232 130 313
234 2 3300 0 3 320 415 155
235 2 3300 0 3 149 418 517
236 2 3300 0 3 335 424 96
237 2 3300 0 3 103 302 347
238 2 3300 0 3 183 311 491
239 2 3300 0 3 215 79 277
240 2 3300 0 3 123 498 460
241 2 3300 0 3 39 450 243
242 2 3300 0 3 141 507 502
243 2 3300 0 3 122 503 300
244 2 3300 0 3 271 497 122
245 2 3300 0 3 266 399 105
246 2 3300 0 3 15 232 313
247 2 3300 0 3 122 490 311
248 2 3300 0 3 234 168 290
249 2 3300 0 3 184 422 333
250 2 3300 0 3 115 256 366
251 2 3300 0 3 137 306 251
252 2 3300 0 3 146 302 277
253 2 3300 0 3 187 336 516
254 2 3300 0 3 185 514 342
255 2 3300 0 3 117 364 276
256 2 3300 0 3 261 371 118
257 2 3300 0 3 44 222 373
258 2 3300 0 3 349 401 158
259 2 3300 0 3 16 17 406
260 2 3300 0 3 44 45 222
261 2 3300 0 3 293 167 434
262 2 3300 0 3 272 346 105
263 2 3300 0 3 183 491 460
264 2 3300 0 3 137 502 306
265 2 3300 0 3 190 348 347
266 2 3300 0 3 295 87 355
267 2 3300 0 3 228 157 417
268 2 3300 0 3 267 422 158
269 2 3300 0 3 43 373 241
270 2 3300 0 3 112 208 511
271 2 3300 0 3 234 132 315
272 2 3300 0 3 146 347 302
273 2 3300 0 3 92 426 398
274 2 3300 0 3 222 151 373
275 2 3300 0 3 216 141 283
276 2 3300 0 3 205 385 85
277 2 3300 0 3 214 312 148
278 2 3300 0 3 268 476 95
279 2 3300 0 3 64 187 344
280 2 3300 0 3 207 135 510
281 2 3300 0 3 123 310 469
282 2 3300 0 3 46 185 342
283 2 3300 0 3 54 55 228
284 2 3300 0 3 184 349 158
285 2 3300 0 3 138 280 284
286 2 3300 0 3 234 290 132
287 2 3300 0 3 263 474 327
288 2 3300 0 3 127 247 297
289 2 3300 0 3 148 309 451
290 2 3300 0 3 34 408 234
291 2 3300 0 3 213 306 502
292 2 3300 0 3 170 390 307
293 2 3300 0 3 16 406 232
294 2 3300 0 3 68 314 198
295 2 3300 0 3 273 166 406
296 2 3300 0 3 270 161 432
297 2 3300 0 3 266 165 399
298 2 3300 0 3 215 128 470
299 2 3300 0 3 287 419 182
300 2 3300 0 3 8 374 7
301 2 3300 0 3 221 341 513
302 2 3300 0 3 231 418 93
303 2 3300 0 3 259 163 393
304 2 3300 0 3 254 263 165
305 2 3300 0 3 61 62 375
306 2 3300 0 3 71 72 274
307 2 3300 0 3 235 169 291
308 2 3300 0 3 128 277 302
309 2 3300 0 3 286 453 94
310 2 3300 0 3 287 182 454
311 2 3300 0 3 124 353 242
312 2 3300 0 3 269 412 176
313 2 3300 0 3 206 94 453
314 2 3300 0 3 268 175 476
315 2 3300 0 3 270 177 478
316 2 3300 0 3 289 180 440
317 2 3300 0 3 172 459 391
318 2 3300 0 3 221 27 341
319 2 3300 0 3 135 249 510
320 2 3300 0 3 35 275 408
321 2 3300 0 3 224 113 362
322 2 3300 0 3 14 15 313
323 2 3300 0 3 322 417 157
324 2 3300 0 3 273 365 166
325 2 3300 0 3 79 368 419
326 2 3300 0 3 212 115 320
327 2 3300 0 3 123 460 310
328 2 3300 0 3 184 28 349
329 2 3300 0 3 205 459 172
330 2 3300 0 3 149 517 381
331 2 3300 0 3 192 496 395
332 2 3300 0 3 138 499 280
333 2 3300 0 3 2 494 22
334 2 3300 0 3 142 259 348
335 2 3300 0 3 141 258 507
336 2 3300 0 3 286 174 404
337 2 3300 0 3 272 149 346
338 2 3300 0 3 289 121 421
339 2 3300 0 3 295 151 487
340 2 3300 0 3 270 109 413
341 2 3300 0 3 72 226 274
342 2 3300 0 3 275 363 168
343 2 3300 0 3 50 316 199
344 2 3300 0 3 270 425 161
345 2 3300 0 3 254 165 452
346 2 3300 0 3 274 366 167
347 2 3300 0 3 85 381 279
348 2 3300 0 3 89 251 306
349 2 3300 0 3 214 508 312
350 2 3300 0 3 221 372 26
351 2 3300 0 3 260 91 442
352 2 3300 0 3 231 93 312
353 2 3300 0 3 301 469 455
354 2 3300 0 3 112 250 361
355 2 3300 0 3 221 150 372
356 2 3300 0 3 111 249 360
357 2 3300 0 3 203 330 457
358 2 3300 0 3 145 318 285
359 2 3300 0 3 74 245 377
360 2 3300 0 3 126 354 245
361 2 3300 0 3 268 95 423
362 2 3300 0 3 136 250 511
363 2 3300 0 3 222 514 111
364 2 3300 0 3 2 23 494
365 2 3300 0 3 300 503 426
366 2 3300 0 3 217 429 158
367 2 3300 0 3 216 129 471
368 2 3300 0 3 8 223 374
369 2 3300 0 3 104 395 496
370 2 3300 0 3 26 27 221
371 2 3300 0 3 132 328 197
372 2 3300 0 3 77 311 337
373 2 3300 0 3 245 155 377
374 2 3300 0 3 319 154 353
375 2 3300 0 3 111 514 334
376 2 3300 0 3 140 318 256
377 2 3300 0 3 140 285 318
378 2 3300 0 3 49 199 218
379 2 3300 0 3 231 312 508
380 2 3300 0 3 209 440 482
381 2 3300 0 3 50 51 316
382 2 3300 0 3 83 253 438
383 2 3300 0 3 267 174 475
384 2 3300 0 3 206 509 110
385 2 3300 0 3 64 352 187
386 2 3300 0 3 207 485 135
387 2 3300 0 3 261 90 371
388 2 3300 0 3 263 327 92
389 2 3300 0 3 270 478 97
390 2 3300 0 3 96 208 335
391 2 3300 0 3 256 434 366
392 2 3300 0 3 269 431 108
393 2 3300 0 3 17 273 406
394 2 3300 0 3 200 465 387
395 2 3300 0 3 173 389 299
396 2 3300 0 3 20 21 242
397 2 3300 0 3 269 424 160
398 2 3300 0 3 182 368 485
399 2 3300 0 3 74 75 245
400 2 3300 0 3 215 277 128
401 2 3300 0 3 205 109 331
402 2 3300 0 3 116 363 275
403 2 3300 0 3 72 73 226
404 2 3300 0 3 289 478 177
405 2 3300 0 3 1 492 76
406 2 3300 0 3 280 367 78
407 2 3300 0 3 189 381 385
408 2 3300 0 3 225 154 414
409 2 3300 0 3 286 467 181
410 2 3300 0 3 214 148 451
411 2 3300 0 3 292 390 130
412 2 3300 0 3 226 377 155
413 2 3300 0 3 268 107 411
414 2 3300 0 3 200 311 490
415 2 3300 0 3 226 115 274
416 2 3300 0 3 287 454 95
417 2 3300 0 3 67 68 198
418 2 3300 0 3 88 488 250
419 2 3300 0 3 136 511 208
420 2 3300 0 3 87 321 355
421 2 3300 0 3 224 344 516
422 2 3300 0 3 288 477 176
423 2 3300 0 3 125 243 450
424 2 3300 0 3 103 259 393
425 2 3300 0 3 231 508 121
426 2 3300 0 3 235 409 169
427 2 3300 0 3 250 488 361
428 2 3300 0 3 232 292 130
429 2 3300 0 3 274 115 366
430 2 3300 0 3 34 35 408
431 2 3300 0 3 294 353 124
432 2 3300 0 3 30 217 401
433 2 3300 0 3 34 234 33
434 2 3300 0 3 62 224 375
435 2 3300 0 3 178 420 455
436 2 3300 0 3 14 313 196
437 2 3300 0 3 202 328 456
438 2 3300 0 3 212 320 88
439 2 3300 0 3 178 469 310
440 2 3300 0 3 101 324 299
441 2 3300 0 3 176 412 466
442 2 3300 0 3 96 439 208
443 2 3300 0 3 178 455 469
444 2 3300 0 3 235 316 51
445 2 3300 0 3 63 224 62
446 2 3300 0 3 142 387 259
447 2 3300 0 3 270 97 425
448 2 3300 0 3 175 411 438
449 2 3300 0 3 205 85 464
450 2 3300 0 3 247 153 297
451 2 3300 0 3 109 198 331
452 2 3300 0 3 138 504 499
453 2 3300 0 3 260 395 104
454 2 3300 0 3 93 455 427
455 2 3300 0 3 157 379 246
456 2 3300 0 3 229 326 146
457 2 3300 0 3 228 276 54
458 2 3300 0 3 130 458 329
459 2 3300 0 3 211 116 321
460 2 3300 0 3 199 133 330
461 2 3300 0 3 205 172 385
462 2 3300 0 3 289 97 478
463 2 3300 0 3 289 428 121
464 2 3300 0 3 116 257 363
465 2 3300 0 3 295 355 125
466 2 3300 0 3 7 374 244
467 2 3300 0 3 4 493 58
468 2 3300 0 3 39 40 450
469 2 3300 0 3 187 516 344
470 2 3300 0 3 190 483 348
471 2 3300 0 3 148 383 278
472 2 3300 0 3 253 405 438
473 2 3300 0 3 274 167 407
474 2 3300 0 3 215 281 79
475 2 3300 0 3 231 517 418
476 2 3300 0 3 119 473 419
477 2 3300 0 3 86 248 303
478 2 3300 0 3 90 441 259
479 2 3300 0 3 288 96 477
480 2 3300 0 3 60 247 446
481 2 3300 0 3 271 147 345
482 2 3300 0 3 162 371 396
483 2 3300 0 3 228 379 157
484 2 3300 0 3 206 134 509
485 2 3300 0 3 56 246 379
486 2 3300 0 3 260 164 395
487 2 3300 0 3 255 433 365
488 2 3300 0 3 270 413 177
489 2 3300 0 3 98 433 255
490 2 3300 0 3 9 10 343
491 2 3300 0 3 209 336 97
492 2 3300 0 3 139 500 281
493 2 3300 0 3 116 505 257
494 2 3300 0 3 145 308 318
495 2 3300 0 3 335 186 424
496 2 3300 0 3 128 298 470
497 2 3300 0 3 120 263 254
498 2 3300 0 3 49 50 199
499 2 3300 0 3 269 160 431
500 2 3300 0 3 291 436 101
501 2 3300 0 3 189 358 346
502 2 3300 0 3 271 300 147
503 2 3300 0 3 144 307 317
504 2 3300 0 3 286 118 467
505 2 3300 0 3 203 411 107
506 2 3300 0 3 290 388 132
507 2 3300 0 3 77 491 311
508 2 3300 0 3 267 410 174
509 2 3300 0 3 90 259 387
510 2 3300 0 3 223 152 374
511 2 3300 0 3 121 508 421
512 2 3300 0 3 110 513 333
513 2 3300 0 3 137 283 502
514 2 3300 0 3 71 274 407
515 2 3300 0 3 215 470 323
516 2 3300 0 3 204 329 458
517 2 3300 0 3 104 278 383
518 2 3300 0 3 92 300 426
519 2 3300 0 3 268 430 107
520 2 3300 0 3 175 438 405
521 2 3300 0 3 169 409 276
522 2 3300 0 3 205 413 109
523 2 3300 0 3 294 150 486
524 2 3300 0 3 261 441 90
525 2 3300 0 3 139 505 500
526 2 3300 0 3 196 313 130
527 2 3300 0 3 233 131 314
528 2 3300 0 3 131 459 331
529 2 3300 0 3 222 360 151
530 2 3300 0 3 124 242 448
531 2 3300 0 3 41 495 3
532 2 3300 0 3 171 456 388
533 2 3300 0 3 188 357 345
534 2 3300 0 3 118 404 252
535 2 3300 0 3 117 507 258
536 2 3300 0 3 1 5 492
537 2 3300 0 3 201 337 483
538 2 3300 0 3 299 324 471
539 2 3300 0 3 56 57 246
540 2 3300 0 3 287 95 476
541 2 3300 0 3 25 240 24
542 2 3300 0 3 138 255 504
543 2 3300 0 3 209 97 440
544 2 3300 0 3 148 427 383
545 2 3300 0 3 218 430 159
546 2 3300 0 3 18 19 225
547 2 3300 0 3 207 334 95
548 2 3300 0 3 200 387 142
549 2 3300 0 3 294 486 86
550 2 3300 0 3 125 355 243
551 2 3300 0 3 112 335 208
552 2 3300 0 3 133 457 330
553 2 3300 0 3 228 55 379
554 2 3300 0 3 46 47 350
555 2 3300 0 3 140 501 282
556 2 3300 0 3 213 502 507
557 2 3300 0 3 125 241 295
558 2 3300 0 3 215 139 281
559 2 3300 0 3 178 332 420
560 2 3300 0 3 201 77 337
561 2 3300 0 3 207 111 334
562 2 3300 0 3 296 88 354
563 2 3300 0 3 101 299 389
564 2 3300 0 3 235 52 409
565 2 3300 0 3 206 484 134
566 2 3300 0 3 95 334 423
567 2 3300 0 3 196 130 329
568 2 3300 0 3 310 460 491
569 2 3300 0 3 10 351 186
570 2 3300 0 3 204 108 329
571 2 3300 0 3 187 161 425
572 2 3300 0 3 173 462 457
573 2 3300 0 3 131 391 459
574 2 3300 0 3 97 336 425
575 2 3300 0 3 205 464 413
576 2 3300 0 3 218 159 400
577 2 3300 0 3 124 240 294
578 2 3300 0 3 228 417 117
579 2 3300 0 3 200 142 337
580 2 3300 0 3 287 476 175
581 2 3300 0 3 262 164 442
582 2 3300 0 3 192 339 129
583 2 3300 0 3 360 487 151
584 2 3300 0 3 168 363 435
585 2 3300 0 3 268 411 175
586 2 3300 0 3 102 345 357
587 2 3300 0 3 33 234 315
588 2 3300 0 3 289 440 97
589 2 3300 0 3 272 105 498
590 2 3300 0 3 210 86 303
591 2 3300 0 3 88 250 305
592 2 3300 0 3 272 301 149
593 2 3300 0 3 135 281 500
594 2 3300 0 3 21 448 242
595 2 3300 0 3 267 158 429
596 2 3300 0 3 53 54 276
597 2 3300 0 3 93 301 455
598 2 3300 0 3 223 112 361
599 2 3300 0 3 229 473 326
600 2 3300 0 3 295 487 87
601 2 3300 0 3 76 492 236
602 2 3300 0 3 146 386 347
603 2 3300 0 3 289 421 180
604 2 3300 0 3 253 164 262
605 2 3300 0 3 286 94 475
606 2 3300 0 3 61 375 247
607 2 3300 0 3 268 423 159
608 2 3300 0 3 216 81 309
609 2 3300 0 3 266 145 285
610 2 3300 0 3 231 121 279
611 2 3300 0 3 266 105 358
612 2 3300 0 3 130 390 458
613 2 3300 0 3 98 255 317
614 2 3300 0 3 82 191 392
615 2 3300 0 3 319 414 154
616 2 3300 0 3 48 218 400
617 2 3300 0 3 291 101 389
618 2 3300 0 3 297 356 127
619 2 3300 0 3 170 307 479
620 2 3300 0 3 75 447 245
621 2 3300 0 3 230 327 474
622 2 3300 0 3 128 338 298
623 2 3300 0 3 138 284 317
624 2 3300 0 3 237 58 493
625 2 3300 0 3 203 83 438
626 2 3300 0 3 142 348 483
627 2 3300 0 3 57 58 449
628 2 3300 0 3 190 347 386
629 2 3300 0 3 16 232 15
630 2 3300 0 3 131 331 198
631 2 3300 0 3 9 223 8
632 2 3300 0 3 37 38 378
633 2 3300 0 3 293 100 391
634 2 3300 0 3 117 417 322
635 2 3300 0 3 140 506 501
636 2 3300 0 3 110 509 248
637 2 3300 0 3 90 396 371
638 2 3300 0 3 219 108 431
639 2 3300 0 3 137 209 482
640 2 3300 0 3 222 111 360
641 2 3300 0 3 134 280 499
642 2 3300 0 3 264 371 162
643 2 3300 0 3 272 123 301
644 2 3300 0 3 188 479 357
645 2 3300 0 3 195 455 420
646 2 3300 0 3 206 110 333
647 2 3300 0 3 63 64 344
648 2 3300 0 3 260 104 340
649 2 3300 0 3 48 49 218
650 2 3300 0 3 38 39 243
651 2 3300 0 3 133 389 457
652 2 3300 0 3 94 333 422
653 2 3300 0 3 210 319 86
654 2 3300 0 3 206 333 94
655 2 3300 0 3 264 118 371
656 2 3300 0 3 233 293 131
657 2 3300 0 3 251 489 362
658 2 3300 0 3 144 265 357
659 2 3300 0 3 82 252 437
660 2 3300 0 3 4 59 493
661 2 3300 0 3 122 497 490
662 2 3300 0 3 59 60 446
663 2 3300 0 3 230 380 147
664 2 3300 0 3 176 466 382
665 2 3300 0 3 144 479 307
666 2 3300 0 3 40 3 495
667 2 3300 0 3 143 420 332
668 2 3300 0 3 287 119 419
669 2 3300 0 3 265 284 78
670 2 3300 0 3 279 381 517
671 2 3300 0 3 265 102 357
672 2 3300 0 3 172 391 308
673 2 3300 0 3 108 196 329
674 2 3300 0 3 139 257 505
675 2 3300 0 3 203 438 411
676 2 3300 0 3 269 108 412
677 2 3300 0 3 38 243 378
678 2 3300 0 3 131 198 314
679 2 3300 0 3 100 256 318
680 2 3300 0 3 271 345 102
681 2 3300 0 3 200 490 465
682 2 3300 0 3 135 485 368
683 2 3300 0 3 253 394 164
684 2 3300 0 3 211 505 116
685 2 3300 0 3 11 351 10
686 2 3300 0 3 180 482 440
687 2 3300 0 3 144 357 479
688 2 3300 0 3 10 186 343
689 2 3300 0 3 42 43 241
690 2 3300 0 3 352 402 161
691 2 3300 0 3 140 282 285
692 2 3300 0 3 82 461 338
693 2 3300 0 3 170 458 390
694 2 3300 0 3 191 302 103
695 2 3300 0 3 46 350 185
696 2 3300 0 3 115 506 256
697 2 3300 0 3 267 94 422
698 2 3300 0 3 186 160 424
699 2 3300 0 3 181 367 484
700 2 3300 0 3 81 451 309
701 2 3300 0 3 179 468 369
702 2 3300 0 3 40 239 450
703 2 3300 0 3 191 393 392
704 2 3300 0 3 80 452 266
705 2 3300 0 3 244 374 152
706 2 3300 0 3 211 321 87
707 2 3300 0 3 85 279 464
708 2 3300 0 3 260 325 91
709 2 3300 0 3 286 404 118
710 2 3300 0 3 293 434 100
711 2 3300 0 3 299 471 129
712 2 3300 0 3 119 405 253
713 2 3300 0 3 272 498 123
714 2 3300 0 3 281 368 79
715 2 3300 0 3 298 323 470
716 2 3300 0 3 90 387 465
717 2 3300 0 3 212 506 115
718 2 3300 0 3 236 492 5
719 2 3300 0 3 162 396 397
720 2 3300 0 3 224 362 153
721 2 3300 0 3 262 442 91
722 2 3300 0 3 132 197 315
723 2 3300 0 3 143 325 260
724 2 3300 0 3 293 391 131
725 2 3300 0 3 147 380 345
726 2 3300 0 3 254 369 468
727 2 3300 0 3 271 102 497
728 2 3300 0 3 439 481 208
729 2 3300 0 3 215 323 139
730 2 3300 0 3 265 78 463
731 2 3300 0 3 174 410 437
732 2 3300 0 3 171 298 338
733 2 3300 0 3 143 340 420
734 2 3300 0 3 225 414 114
735 2 3300 0 3 266 358 145
736 2 3300 0 3 221 513 110
737 2 3300 0 3 73 377 226
738 2 3300 0 3 195 427 455
739 2 3300 0 3 230 147 327
740 2 3300 0 3 216 283 81
741 2 3300 0 3 134 248 509
742 2 3300 0 3 223 361 152
743 2 3300 0 3 290 168 435
744 2 3300 0 3 219 431 160
745 2 3300 0 3 204 466 412
746 2 3300 0 3 119 253 262
747 2 3300 0 3 120 254 468
748 2 3300 0 3 127 446 247
749 2 3300 0 3 31 197 217
750 2 3300 0 3 83 339 192
751 2 3300 0 3 64 65 352
752 2 3300 0 3 249 487 360
753 2 3300 0 3 29 401 349
754 2 3300 0 3 138 317 255
755 2 3300 0 3 140 256 506
756 2 3300 0 3 30 401 29
757 2 3300 0 3 9 343 223
758 2 3300 0 3 337 142 483
759 2 3300 0 3 220 109 432
760 2 3300 0 3 100 434 256
761 2 3300 0 3 214 421 508
762 2 3300 0 3 128 191 338
763 2 3300 0 3 126 245 447
764 2 3300 0 3 174 437 404
765 2 3300 0 3 82 338 191
766 2 3300 0 3 83 394 253
767 2 3300 0 3 264 463 78
768 2 3300 0 3 157 246 356
769 2 3300 0 3 228 117 276
770 2 3300 0 3 120 382 474
771 2 3300 0 3 201 483 325
772 2 3300 0 3 252 404 437
773 2 3300 0 3 210 499 504
774 2 3300 0 3 135 500 304
775 2 3300 0 3 297 153 489
776 2 3300 0 3 65 402 352
777 2 3300 0 3 288 120 468
778 2 3300 0 3 83 192 394
779 2 3300 0 3 230 474 382
780 2 3300 0 3 76 236 447
781 2 3300 0 3 230 466 84
782 2 3300 0 3 185 334 514
783 2 3300 0 3 181 467 367
784 2 3300 0 3 237 493 59
785 2 3300 0 3 134 367 280
786 2 3300 0 3 87 487 249
787 2 3300 0 3 136 208 481
788 2 3300 0 3 202 456 461
789 2 3300 0 3 87 249 304
790 2 3300 0 3 128 302 191
791 2 3300 0 3 267 475 94
792 2 3300 0 3 211 500 505
793 2 3300 0 3 338 461 171
794 2 3300 0 3 92 327 300
795 2 3300 0 3 86 486 248
796 2 3300 0 3 202 106 328
797 2 3300 0 3 28 29 349
798 2 3300 0 3 172 480 385
799 2 3300 0 3 220 161 402
800 2 3300 0 3 127 246 449
801 2 3300 0 3 100 318 308
802 2 3300 0 3 14 196 13
803 2 3300 0 3 361 488 152
804 2 3300 0 3 264 467 118
805 2 3300 0 3 173 299 339
806 2 3300 0 3 135 304 249
807 2 3300 0 3 236 445 126
808 2 3300 0 3 57 449 246
809 2 3300 0 3 236 5 445
810 2 3300 0 3 139 323 257
811 2 3300 0 3 213 89 306
812 2 3300 0 3 121 428 279
813 2 3300 0 3 214 451 81
814 2 3300 0 3 67 198 220
815 2 3300 0 3 297 489 89
816 2 3300 0 3 66 220 402
817 2 3300 0 3 171 388 298
818 2 3300 0 3 203 457 462
819 2 3300 0 3 297 89 356
820 2 3300 0 3 100 308 391
821 2 3300 0 3 147 300 327
822 2 3300 0 3 299 129 339
823 2 3300 0 3 143 201 325
824 2 3300 0 3 63 344 224
825 2 3300 0 3 212 501 506
826 2 3300 0 3 171 461 456
827 2 3300 0 3 189 385 480
828 2 3300 0 3 89 489 251
829 2 3300 0 3 65 66 402
830 2 3300 0 3 90 465 396
831 2 3300 0 3 265 162 397
832 2 3300 0 3 199 316 133
833 2 3300 0 3 201 332 77
834 2 3300 0 3 237 449 58
835 2 3300 0 3 340 195 420
836 2 3300 0 3 106 197 328
837 2 3300 0 3 106 217 197
838 2 3300 0 3 143 260 340
839 2 3300 0 3 212 305 501
840 2 3300 0 3 136 305 250
841 2 3300 0 3 80 254 452
842 2 3300 0 3 114 255 365
843 2 3300 0 3 230 84 380
844 2 3300 0 3 188 345 380
845 2 3300 0 3 212 88 305
846 2 3300 0 3 235 133 316
847 2 3300 0 3 273 114 365
848 2 3300 0 3 288 439 96
849 2 3300 0 3 190 325 483
850 2 3300 0 3 322 157 356
851 2 3300 0 3 21 22 448
852 2 3300 0 3 136 282 501
853 2 3300 0 3 145 480 308
854 2 3300 0 3 145 358 480
855 2 3300 0 3 230 382 466
856 2 3300 0 3 213 507 117
857 2 3300 0 3 185 159 423
858 2 3300 0 3 239 125 450
859 2 3300 0 3 143 332 201
860 2 3300 0 3 192 395 394
861 2 3300 0 3 291 389 133
862 2 3300 0 3 146 326 386
863 2 3300 0 3 268 159 430
864 2 3300 0 3 339 462 173
865 2 3300 0 3 11 403 351
866 2 3300 0 3 30 31 217
867 2 3300 0 3 135 368 281
868 2 3300 0 3 204 84 466
869 2 3300 0 3 144 317 284
870 2 3300 0 3 220 432 161
871 2 3300 0 3 219 403 12
872 2 3300 0 3 195 383 427
873 2 3300 0 3 351 403 160
874 2 3300 0 3 221 359 150
875 2 3300 0 3 296 488 88
876 2 3300 0 3 296 354 126
877 2 3300 0 3 77 310 491
878 2 3300 0 3 264 78 367
879 2 3300 0 3 237 127 449
880 2 3300 0 3 217 106 429
881 2 3300 0 3 238 22 494
882 2 3300 0 3 238 448 22
883 2 3300 0 3 114 504 255
884 2 3300 0 3 136 481 369
885 2 3300 0 3 287 175 405
886 2 3300 0 3 257 435 363
887 2 3300 0 3 219 160 403
888 2 3300 0 3 73 74 377
889 2 3300 0 3 41 42 444
890 2 3300 0 3 236 126 447
891 2 3300 0 3 99 298 388
892 2 3300 0 3 187 352 161
893 2 3300 0 3 136 369 282
894 2 3300 0 3 359 486 150
895 2 3300 0 3 204 458 170
896 2 3300 0 3 134 499 303
897 2 3300 0 3 109 220 198
898 2 3300 0 3 289 177 428
899 2 3300 0 3 204 412 108
900 2 3300 0 3 196 219 13
901 2 3300 0 3 235 291 133
902 2 3300 0 3 179 369 481
903 2 3300 0 3 203 462 83
904 2 3300 0 3 193 396 465
905 2 3300 0 3 225 114 273
906 2 3300 0 3 238 494 23
907 2 3300 0 3 18 225 273
908 2 3300 0 3 210 303 499
909 2 3300 0 3 231 279 517
910 2 3300 0 3 114 414 319
911 2 3300 0 3 177 413 464
912 2 3300 0 3 210 504 114
913 2 3300 0 3 17 18 273
914 2 3300 0 3 180 370 482
915 2 3300 0 3 164 394 395
916 2 3300 0 3 137 370 283
917 2 3300 0 3 102 397 497
918 2 3300 0 3 134 484 367
919 2 3300 0 3 180 421 370
920 2 3300 0 3 224 153 375
921 2 3300 0 3 134 303 248
922 2 3300 0 3 288 176 382
923 2 3300 0 3 191 103 393
924 2 3300 0 3 124 443 240
925 2 3300 0 3 136 501 305
926 2 3300 0 3 265 463 162
927 2 3300 0 3 193 397 396
928 2 3300 0 3 211 304 500
929 2 3300 0 3 265 397 102
930 2 3300 0 3 82 202 461
931 2 3300 0 3 12 13 219
932 2 3300 0 3 178 310 332
933 2 3300 0 3 223 515 112
934 2 3300 0 3 31 32 197
935 2 3300 0 3 350 400 159
936 2 3300 0 3 32 33 315
937 2 3300 0 3 190 386 325
938 2 3300 0 3 262 473 119
939 2 3300 0 3 264 162 463
940 2 3300 0 3 290 99 388
941 2 3300 0 3 42 241 444
942 2 3300 0 3 75 76 447
943 2 3300 0 3 185 423 334
944 2 3300 0 3 288 468 179
945 2 3300 0 3 262 91 326
946 2 3300 0 3 262 326 473
947 2 3300 0 3 335 112 515
948 2 3300 0 3 144 284 265
949 2 3300 0 3 91 386 326
950 2 3300 0 3 264 367 467
951 2 3300 0 3 52 53 409
952 2 3300 0 3 172 308 480
953 2 3300 0 3 41 444 239
954 2 3300 0 3 237 446 127
955 2 3300 0 3 108 219 196
956 2 3300 0 3 213 117 322
957 2 3300 0 3 24 240 443
958 2 3300 0 3 137 482 370
959 2 3300 0 3 80 266 285
960 2 3300 0 3 238 124 448
961 2 3300 0 3 80 282 369
962 2 3300 0 3 77 332 310
963 2 3300 0 3 267 106 410
964 2 3300 0 3 189 480 358
965 2 3300 0 3 47 400 350
966 2 3300 0 3 11 12 403
967 2 3300 0 3 188 380 384
968 2 3300 0 3 185 350 159
969 2 3300 0 3 6 7 244
970 2 3300 0 3 193 497 397
971 2 3300 0 3 247 375 153
972 2 3300 0 3 82 437 202
973 2 3300 0 3 202 410 106
974 2 3300 0 3 186 351 160
975 2 3300 0 3 339 83 462
976 2 3300 0 3 41 239 495
977 2 3300 0 3 32 315 197
978 2 3300 0 3 47 48 400
979 2 3300 0 3 99 435 257
980 2 3300 0 3 91 325 386
981 2 3300 0 3 340 104 383
982 2 3300 0 3 211 87 304
983 2 3300 0 3 179 481 439
984 2 3300 0 3 125 444 241
985 2 3300 0 3 127 356 246
986 2 3300 0 3 214 81 421
987 2 3300 0 3 80 285 282
988 2 3300 0 3 80 369 254
989 2 3300 0 3 193 465 490
990 2 3300 0 3 204 170 384
991 2 3300 0 3 81 283 370
992 2 3300 0 3 66 67 220
993 2 3300 0 3 223 343 515
994 2 3300 0 3 335 515 186
995 2 3300 0 3 84 384 380
996 2 3300 0 3 287 405 119
997 2 3300 0 3 267 429 106
998 2 3300 0 3 99 257 323
999 2 3300 0 3 237 59 446
1000 2 3300 0 3 202 437 410
1001 2 3300 0 3 288 382 120
1002 2 3300 0 3 110 248 359
1003 2 3300 0 3 126 445 244
1004 2 3300 0 3 53 276 409
1005 2 3300 0 3 362 489 153
1006 2 3300 0 3 296 152 488
1007 2 3300 0 3 6 244 445
1008 2 3300 0 3 210 114 319
1009 2 3300 0 3 279 428 464
1010 2 3300 0 3 204 384 84
1011 2 3300 0 3 23 24 443
1012 2 3300 0 3 6 445 5
1013 2 3300 0 3 81 370 421
1014 2 3300 0 3 40 495 239
1015 2 3300 0 3 170 479 384
1016 2 3300 0 3 188 384 479
1017 2 3300 0 3 288 179 439
1018 2 3300 0 3 238 23 443
1019 2 3300 0 3 186 515 343
1020 2 3300 0 3 99 323 298
1021 2 3300 0 3 213 322 89
1022 2 3300 0 3 193 490 497
1023 2 3300 0 3 221 110 359
1024 2 3300 0 3 290 435 99
1025 2 3300 0 3 177 464 428
1026 2 3300 0 3 244 152 296
1027 2 3300 0 3 238 443 124
1028 2 3300 0 3 239 444 125
1029 2 3300 0 3 248 486 359
1030 2 3300 0 3 126 244 296
1031 2 3300 0 3 89 322 356
1032 2 3300 0 3 340 383 195
$ENDELM
